<?xml version="1.0"?>
<svg xmlns="http://www.w3.org/2000/svg" xmlns:xlink="http://www.w3.org/1999/xlink"
     xmlns:canvas="http://www.gnu.org/canvas" width="400" height="400"
     viewBox="0 0 1100 400"
     version="1.1" stroke-width="1">
  <g id="_defs">
    <defs>
      <rect id="key_s" width="90" height="90" x="100" y="10" rx="5" fill="none" stroke="black" stroke-width="2"/>
      <rect id="key_l" width="140" height="90" x="100" y="10" rx="5" fill="none" stroke="black" stroke-width="2"/>
      <rect id="space" width="440" height="90" x="100" y="10" rx="5" fill="none" stroke="black" stroke-width="2"/>
      <symbol id="shift" viewBox="0 0 16 16">
	<!-- <path d="M7.27 2.047a1 1 0 0 1 1.46 0l6.345 6.77c.6.638.146 1.683-.73 1.683H11.5v3a1 1 0 0 1-1 1h-5a1 1 0 0 1-1-1v-3H1.654C.78 10.5.326 9.455.924 8.816L7.27 2.047zM14.346 9.5L8 2.731 1.654 9.5H4.5a1 1 0 0 1 1 1v3h5v-3a1 1 0 0 1 1-1h2.846z"/> -->
      </symbol>
      <symbol id="delete" viewBox="0 0 576 512">
	<!-- <path d="M576 384C576 419.3 547.3 448 512 448H205.3C188.3 448 172 441.3 160 429.3L9.372 278.6C3.371 272.6 0 264.5 0 256C0 247.5 3.372 239.4 9.372 233.4L160 82.75C172 70.74 188.3 64 205.3 64H512C547.3 64 576 92.65 576 128V384zM271 208.1L318.1 256L271 303C261.7 312.4 261.7 327.6 271 336.1C280.4 346.3 295.6 346.3 304.1 336.1L352 289.9L399 336.1C408.4 346.3 423.6 346.3 432.1 336.1C442.3 327.6 442.3 312.4 432.1 303L385.9 256L432.1 208.1C442.3 199.6 442.3 184.4 432.1 175C423.6 165.7 408.4 165.7 399 175L352 222.1L304.1 175C295.6 165.7 280.4 165.7 271 175C261.7 184.4 261.7 199.6 271 208.1V208.1z"/> -->
      </symbol>
      <symbol id="return" viewBox="320 300 30 30">
	<path d="M 260,180 L 260,240 160,240 160,230 150,240 160,250 160,240" stroke="black"
	      fill="none" stroke-width="20"/>
      </symbol>
    </defs>
  </g>
  <!-- first row -->
  <use href="#key_s" x="0" id="q"/>
  <text x="123" y="75" font-size="60">Q</text>
  <use href="#key_s" x="100" id="w"/>
  <text x="223" y="75" font-size="60">W</text>
  <use href="#key_s" x="200" id="e"/>
  <text x="323" y="75" font-size="60">E</text>
  <use href="#key_s" x="300" id="r"/>
  <text x="423" y="75" font-size="60">R</text>
  <use href="#key_s" x="400" id="t"/>
  <text x="523" y="75" font-size="60">T</text>
  <use href="#key_s" x="500" id="y"/>
  <text x="623" y="75" font-size="60">Y</text>
  <use href="#key_s" x="600" id="u"/>
  <text x="723" y="75" font-size="60">U</text>
  <use href="#key_s" x="700" id="i"/>
  <text x="830" y="75" font-size="60">I</text>
  <use href="#key_s" x="800" id="o"/>
  <text x="923" y="75" font-size="60">O</text>
  <use href="#key_s" x="900" id="p"/>
  <text x="1023" y="75" font-size="60">P</text>

  <!-- second row -->
  <use href="#key_s" x="0" y="100" id="a"/>
  <text x="123" y="175" font-size="60">A</text>
  <use href="#key_s" x="100" y="100" id="s"/>
  <text x="223" y="175" font-size="60">S</text>
  <use href="#key_s" x="200" y="100" id="d"/>
  <text x="323" y="175" font-size="60">D</text>
  <use href="#key_s" x="300" y="100" id="f"/>
  <text x="423" y="175" font-size="60">F</text>
  <use href="#key_s" x="400" y="100" id="g"/>
  <text x="523" y="175" font-size="60">G</text>
  <use href="#key_s" x="500" y="100" id="h"/>
  <text x="623" y="175" font-size="60">H</text>
  <use href="#key_s" x="600" y="100" id="j"/>
  <text x="730" y="175" font-size="60">J</text>
  <use href="#key_s" x="700" y="100" id="k"/>
  <text x="823" y="175" font-size="60">K</text>
  <use href="#key_s" x="800" y="100" id="l"/>
  <text x="923" y="175" font-size="60">L</text>

  <!-- third row -->
  <use href="#key_l" x="0" y="200" id="shift"/>
  <use href="#shift" x="135" y="225" width="70" height="60"/>
  <use href="#key_s" x="150" y="200" id="z"/>
  <text x="273" y="275" font-size="60">Z</text>
  <use href="#key_s" x="250" y="200" id="x"/>
  <text x="373" y="275" font-size="60">X</text>
  <use href="#key_s" x="350" y="200" id="c"/>
  <text x="473" y="275" font-size="60">C</text>
  <use href="#key_s" x="450" y="200" id="v"/>
  <text x="573" y="275" font-size="60">V</text>
  <use href="#key_s" x="550" y="200" id="b"/>
  <text x="673" y="275" font-size="60">B</text>
  <use href="#key_s" x="650" y="200" id="n"/>
  <text x="773" y="275" font-size="60">N</text>
  <use href="#key_s" x="750" y="200" id="m"/>
  <text x="870" y="275" font-size="60">M</text>
  <use href="#key_l" x="850" y="200" id="del"/>
  <use href="#delete" x="980" y="225" width="70" height="60"/>

  <!-- fourth row -->
  <use href="#key_l" x="0" y="300" id="num"/>
  <text x="115" y="375" font-size="50">?123</text>
  <use href="#key_s" x="150" y="300" id="comma"/>
  <text x="285" y="375" font-size="60">,</text>
  <use href="#space" x="250" y="300" id="sp"/>
  <use href="#key_s" x="700" y="300" id="dot"/>
  <text x="835" y="375" font-size="60">.</text>
  <use href="#key_l" x="800" y="300" id="ret"/>
  <use href="#return" x="1020" y="390" width="15" height="15"/>
</svg>
